digraph "printingobserver.hpp"
{
  edge [fontname="Helvetica",fontsize="10",labelfontname="Helvetica",labelfontsize="10"];
  node [fontname="Helvetica",fontsize="10",shape=record];
  Node1 [label="printingobserver.hpp",height=0.2,width=0.4,color="black", fillcolor="grey75", style="filled", fontcolor="black"];
  Node1 -> Node2 [color="midnightblue",fontsize="10",style="solid"];
  Node2 [label="arrayevent.hpp",height=0.2,width=0.4,color="black", fillcolor="white", style="filled",URL="$arrayevent_8hpp.html"];
  Node2 -> Node3 [color="midnightblue",fontsize="10",style="solid"];
  Node3 [label="array.hpp",height=0.2,width=0.4,color="black", fillcolor="white", style="filled",URL="$array_8hpp.html"];
  Node3 -> Node4 [color="midnightblue",fontsize="10",style="solid"];
  Node4 [label="stdexcept",height=0.2,width=0.4,color="grey75", fillcolor="white", style="filled"];
  Node3 -> Node5 [color="midnightblue",fontsize="10",style="solid"];
  Node5 [label="stdlib.h",height=0.2,width=0.4,color="grey75", fillcolor="white", style="filled"];
  Node1 -> Node6 [color="midnightblue",fontsize="10",style="solid"];
  Node6 [label="arrayobserver.hpp",height=0.2,width=0.4,color="black", fillcolor="white", style="filled",URL="$arrayobserver_8hpp.html"];
  Node1 -> Node7 [color="midnightblue",fontsize="10",style="solid"];
  Node7 [label="iostream",height=0.2,width=0.4,color="grey75", fillcolor="white", style="filled"];
}
